GUI\FormulaDetalleGUI$4.class
Pedidos\Pedidos2$8.class
COMPRASBorrego\ComprasBorre$18.class
Kardex\Kardex$5.class
Pedidos\Pedidos2$18.class
GUI\EmpresaGUI$4.class
GUI\MovimientoDocumentoGUI$6.class
produccion\OrdenProduccion$24.class
GUI\MovimientoDetalleGUI$3.class
GUI\ArticuloPrecioGUI.class
Bean\EmpresaGrupo.class
GUI\UsuarioGUI$14.class
ReporteCostots\versionBorrego$10.class
Movimiento\MovimientoBorrego$11.class
ReporteSalidasPorMes\ReporteSalidasPorMes$3.class
produccion\OrdenProduccion$11.class
Enviar2\EnviarArchivosPlanos$progreso.class
COMPRASBorrego\JTextFieldLimit.class
Produccion2\OrdenProduccion$16.class
ReporteEntradasPorMes\ReporteEntradasPorMes$3.class
GUI\EmpresaSedeGUI$10.class
GUI\EmpresaGUI$9.class
GUI\MovimientoTipoGUI$8.class
Facturador\ComprobarDisponibilidad$6.class
nivelacion\Nivelacion$4.class
Pedidos\MiModelPedidos.class
EnviarSunat\ModificarEnviosGui$1.class
Produccion2\ModificarProduccion$2.class
KARDEXRESUMIDO\KardexMio$2.class
GUI\Principal$31.class
Pedidos\ModificarPedido$12.class
Movimiento\Movimiento$4.class
Modificar\MODIFICARCOMPROBANTE$5.class
COMPRASBorrego\ComprasBorre$13.class
Produccion2\OrdenProduccion$24.class
Pedidos\PedidosVerificar$16.class
GUI\MovimientoDocumentoGUI$1.class
Maestros\MenuMaestro$2.class
GUI\FormulaDetalleGUI.class
GUI\ArticuloPrecioGUI$3.class
GUI\FormulaDetalleGUI$9.class
COMPRASBorrego\ComprasBorre$26.class
GUI\SerieDocumento$7.class
KARDEXRESUMIDO\versionBorrego$16.class
IngresoAlmacen\CompraeIngresoAlmacen$18.class
ReporteCostots\versionBorrego$15.class
ReporteSalidasPorMes\ReporteSalidasPorMes$8.class
Pedidos\Pedidos3$11.class
GUI\MovimientoDetalleGUI$8.class
ReporteDiario\ReporteDiario$10.class
KARDEXRESUMIDO\versionBorrego$5.class
produccion\OrdenProduccion$16.class
GUI\MovimientoDocumentoGUI$10.class
Facturador\Ventas.class
reportePedidos\ReportePedidos$13.class
Pedidos\Pedidos3$16.class
Pedidos\ModificarPedido$9.class
ReporteCostots\versionBorrego$5.class
Facturador\enviarGui.class
Maestros\MovimientoTipoM.class
ReporteEntradasPorMes\ReporteEntradasPorMes$8.class
GUI\MovimientoTipoGUI$3.class
Facturador\ComprobarDisponibilidad$11.class
Pedidos\Pedidos3$5.class
Facturador\CambiarItem$5.class
Facturador\facturadorGUI$17.class
Produccion2\OrdenProduccion$37.class
Movimiento\Movimiento$9.class
EnviarSunat\ModificarEnviosGui$6.class
GUI\EmpresaGrupoGUI$3.class
produccion\MODPRODUCCION$5.class
Pedidos\Pedidos2$13.class
Pedidos\Pedidos2$21.class
GUI\ArticuloGUI$2.class
GUI\MovimientoDocumentoGUI.class
Facturador\facturaBotones$11.class
GUI\ArticuloPrecioGUI$8.class
Maestros\CategoriaM.class
IngresoAlmacen\CompraeIngresoAlmacenLiqCom$12.class
Pedidos\PedidosVerificar$11.class
COMPRASBorrego\ComprasBorre$21.class
IngresoAlmacen\CompraeIngresoAlmacen$13.class
Movimiento\MovimientoBean.class
GUI\ListaGUI$4.class
GUI\SerieDocumento$2.class
Inventario\inventarioInicialGui.class
ReporteSalidasPorMes\ReporteSalidasPorMes.class
Facturador\facturaBotones$2.class
GUI\Principal$28.class
Produccion2\ModificarProduccion.class
Produccion2\OrdenProduccion$45.class
GUI\Principal$15.class
Kardex\Kardex$13.class
produccion\OrdenProduccion$6.class
GUI\Principal$10.class
produccion\MyTableCellEditor.class
ReporteCostots\Pruebas.class
Produccion2\OrdenProduccion$5.class
GUI\EmpresaSedeGUI$2.class
Pedidos\Pedidos3$24.class
produccion\ListaProduccion$4.class
Facturador\facturadorGUI$21.class
Facturador\facturadorGUI$12.class
ReporteSalidasPorMes\Inventario$1.class
IngresoAlmacen\CompraeIngresoAlmacenLiqCom$2.class
GUI\EmpresaGrupoGUI$8.class
ReporteDiario\ReporteDiario$4.class
EnviarSunat\enviarGui$3.class
GUI\Principal$36.class
GUI\UsuarioGUI$6.class
EnviarSunat\enviar.class
Modificar\MODIFICARCOMPROBANTE$11.class
Pedidos\PedidosVerificar$9.class
GUI\Principal$1.class
Enviar2\EnviarArchivosPlanos$3.class
Produccion2\ListaProduccion$2.class
ReporteCostots\Atributos_Kardex.class
ReporteDiario\pasaDatos.class
Movimiento\PanelArticulos$6.class
Facturador\enviarGui$8.class
Facturador\facturadorGUI$38.class
GUI\UsuarioGUI$7.class
EnviarSunat\Prueba.class
nivelacion\PanelArticulos$5.class
GUI\CategoriaGUI$7.class
Bean\UnidadMedida.class
COMPRASBorrego\ComprasBorre$6.class
Produccion2\MODPRODUCCION$3.class
IngresoAlmacen\CompraeIngresoAlmacen$21.class
produccion\ListaProduccion$3.class
Facturador\facturadorGUI$33.class
Facturador\Imagen.class
Pedidos\Pedidos3$20.class
Bean\FormulaDetalle.class
GUI\MovimientoTipoGUI.class
GUI\CategoriaGUI$3.class
Bean\EmpresaSede.class
GUI\UsuarioGUI$1.class
reportePedidos\ReportePedidos$5.class
Pedidos\PedidosVerificar$8.class
Facturador\facturadorGUI$20.class
ReporteCostots\KardexMio$3.class
GUI\EmpresaSedeGUI$6.class
KARDEXRESUMIDO\versionBorrego$20.class
Bean\MovimientoDet.class
ReporteCostots\KardexMio.class
IngresoAlmacen\CompraeIngresoAlmacenLiqCom$13.class
ReporteCostots\versionBorrego$1.class
GUI\ListaGUI$8.class
Maestros\GenerarCodigo.class
Facturador\facturadorGUI$4.class
COMPRASBorrego\ComprasBorre$22.class
IngresoAlmacen\CompraeIngresoAlmacen$14.class
EnviarSunat\enviarGui$9.class
GUI\Principal$5.class
Pedidos\PedidosVerificar$12.class
KARDEXRESUMIDO\versionBorrego$12.class
COMPRASBorrego\ComprasBorre$5.class
produccion\OrdenProduccion$7.class
Facturador\enviarGui$4.class
Facturador\enviar$3.class
GUI\ArticuloGUI$6.class
Produccion2\OrdenProduccion$41.class
Modificar\MODIFICARCOMPROBANTE$15.class
Produccion2\MODPRODUCCION$8.class
GUI\Login$4.class
Movimiento\PanelArticulos$2.class
Modificar\MODIFICARCOMPROBANTE$1.class
ReporteCostots\versionBorrego$6.class
GUI\ListaGUI$9.class
ReporteCostots\versionBorrego$19.class
GUI\ArticuloGUI$7.class
Facturador\facturaBotones$7.class
Produccion2\OrdenProduccion$9.class
IngresoAlmacen\CompraeIngresoAlmacenLiqCom$20.class
Facturador\ComprobarDisponibilidad$10.class
GUI\FormulaCabeceraGUI$4.class
Maestros\ArticuloPrecioM.class
Facturador\facturadorGUI$18.class
Movimiento\Movimiento$8.class
Produccion2\MODPRODUCCION$7.class
Enviar2\EnviarListas.class
Facturador\facturadorGUI$34.class
Facturador\facturadorGUI$9.class
Facturador\ComprobarDisponibilidad.class
ReporteDiario\ReporteDiario$3.class
comprasVentas\ReportesForm.class
Facturador\facturaBotones$6.class
GUI\EmpresaSedeGUI$7.class
IngresoAlmacen\CompraeIngresoAlmacenLiqCom$3.class
produccion\TextFieldPirata.class
ReporteEntradasPorMes\TestInventarioEmpresasArticulo$1.class
ReporteSalidasPorMes\ReporteSalidasPorMes$7.class
GUI\ListaGUI.class
reportePedidos\ReportePedidos$6.class
KARDEXRESUMIDO\versionBorrego$6.class
KARDEXRESUMIDO\versionBorrego$17.class
GUI\FormulaCabeceraGUI$3.class
GUI\ArticuloPrecioGUI$2.class
EnviarSunat\enviarGui$8.class
GUI\Principal$6.class
GUI\MovimientoTipoGUI$4.class
GUI\UsuarioGUI$10.class
Modificar\MODIFICARCOMPROBANTE$16.class
Kardex\Atributos_Kardex.class
Pedidos\PedidosVerificar$4.class
produccion\Produccion.class
GUI\EmpresaSedeGUI$11.class
GUI\FormulaDetalleGUI$11.class
KARDEXRESUMIDO\versionBorrego$11.class
Modificar\MODIFICARCOMPROBANTE$6.class
Movimiento\PanelArticulos$1.class
Facturador\enviarGui$3.class
Movimiento\Movimiento$3.class
Produccion2\OrdenProduccion$28.class
GUI\SerieDocumento$8.class
Produccion2\ProduccionMama.class
COMPRASBorrego\ComprasBorre$14.class
produccion\OrdenProduccion$20.class
Kardex\Kardex$6.class
Bean\MovimientoTipo.class
GUI\EmpresaGUI$5.class
GUI\CategoriaGUI$2.class
Facturador\ComprobarDisponibilidad$2.class
GUI\UsuarioGUI$13.class
IngresoAlmacen\CompraeIngresoAlmacenLiqCom$8.class
COMPRASBorrego\ComprasBorre$1.class
GUI\MovimientoDocumentoGUI$2.class
Produccion2\OrdenProduccion$32.class
ReporteCostots\EmpresaSedeMapeable.class
IngresoAlmacen\CompraeIngresoAlmacenLiqCom$17.class
Movimiento\MovimientoBorrego$12.class
Pedidos\Pedidos3$12.class
GUI\MovimientoDocumentoGUI$5.class
GUI\UsuarioGUI$2.class
Kardex\Kardex$9.class
produccion\OrdenProduccion$15.class
GUI\ArticuloGUI$12.class
Pedidos\Pedidos2$26.class
produccion\OrdenProduccion$12.class
ReporteSalidasPorMes\ReporteSalidasPorMes$2.class
reportePedidos\ReportePedidos$1.class
Movimiento\Movimiento$5.class
Pedidos\Pedidos3$15.class
Produccion2\OrdenProduccion$33.class
ReporteEntradasPorMes\Inventario.class
Bean\Configurar.class
Facturador\facturadorGUI$25.class
Facturador\ComprobarDisponibilidad$1.class
com\mycompany\prueba\ExcelOOXML.class
Modificar\MODIFICARCOMPROBANTE$4.class
GUI\EmpresaGUI$3.class
Bean\Generico.class
GUI\FormulaDetalleGUI$10.class
KARDEXRESUMIDO\KardexMio.class
KARDEXRESUMIDO\KardexMio$1.class
Produccion2\OrdenProduccion$40.class
IngresoAlmacen\CompraeIngresoAlmacenLiqCom$18.class
Pedidos\PedidosVerificar$3.class
COMPRASBorrego\ComprasBorre$12.class
GUI\Configuracion.class
ReporteSalidasPorMes\ReporteSalidasPorMes$4.class
Pedidos\Pedidos2$27.class
produccion\MODPRODUCCION$9.class
KARDEXRESUMIDO\versionBorrego$9.class
Movimiento\MovimientoBorrego$10.class
Facturador\facturadorGUI$26.class
IngresoAlmacen\CompraeIngresoAlmacenLiqCom$7.class
GUI\MovimientoTipoGUI$7.class
Produccion2\OrdenProduccion$29.class
Facturador\facturadorGUI$5.class
ReporteCostots\KardexMio$4.class
KARDEXRESUMIDO\Atributos_Kardex.class
GUI\EmpresaSedeGUI$3.class
Facturador\CambiarItem$6.class
Pedidos\ModificarPedido$8.class
Movimiento\MovimientoBorrego$1.class
Facturador\facturadorGUI.class
Pedidos\Pedidos3$10.class
reportePedidos\ReportePedidos$2.class
COMPRASBorrego\ComprasBorre$2.class
GUI\Principal$11.class
Pedidos\Pedidos3$6.class
produccion\ModificarProduccion$4.class
Movimiento\PanelArticulos$5.class
IngresoAlmacen\CompraeIngresoAlmacen$17.class
Pedidos\Pedidos3$23.class
Produccion2\OrdenProduccion$1.class
GUI\ArticuloPrecioGUI$10.class
Enviar2\Recibir.class
EnviarSunat\ModificarEnviosGui$7.class
KARDEXRESUMIDO\versionBorrego$15.class
Pedidos\PedidosVerificar$5.class
GUI\ArticuloGUI$3.class
Movimiento\ArchivosGenerdor.class
comprasVentas\ReportesProducctosProveedor$2.class
Inventario\Inventario.class
Modificar\MODIFICARCOMPROBANTE$12.class
Produccion2\OrdenProduccion$36.class
GUI\Principal$37.class
ReporteCostots\versionBorrego$16.class
Pedidos\Pedidos2$20.class
GUI\FormulaDetalleGUI$12.class
GUI\Principal$2.class
KARDEXRESUMIDO\versionBorrego$4.class
COMPRASBorrego\ComprasBorre$33.class
Inventario\inventarioInicialGui$1.class
Facturador\enviarGui$7.class
ReporteEntradasPorMes\ReporteEntradasPorMes$2.class
GUI\Principal$16.class
Pedidos\ModificarPedido$3.class
GUI\EmpresaSedeGUI$8.class
Bean\FormulaCabecera.class
Facturador\facturadorGUI$35.class
Facturador\facturadorGUI$8.class
Facturador\panelPedido$2.class
nivelacion\Nivelacion$5.class
EnviarSunat\enviar$3.class
produccion\OrdenProduccion$23.class
Pedidos\PedidosVerificar$23.class
Produccion2\ModificarProduccion$1.class
IngresoAlmacen\CompraeIngresoAlmacen$12.class
GUI\MovimientoTipoGUI$9.class
comprasVentas\ReportesProducctosProveedor$7.class
produccion\OrdenProduccion$10.class
GUI\ArticuloGUI$8.class
Maestros\Atributos.class
KARDEXRESUMIDO\KardexMio$3.class
Facturador\facturadorGUI$22.class
comprasVentas\ReporteVentas.class
Pedidos\Pedidos2$25.class
GUI\Principal$32.class
Movimiento\MovimientoBorrego.class
COMPRASBorrego\ComprasBorre.class
ReporteSalidasPorMes\TestInventarioEmpresasArticulo.class
Kardex\Kardex.class
COMPRASBorrego\ComprasBorre$9.class
Produccion2\OrdenProduccion$25.class
GUI\ListaGUI$7.class
Bean\Empresa.class
IngresoAlmacen\Autocomplete$Mode.class
KARDEXRESUMIDO\pasarDatos.class
nivelacion\Nivelacion$3.class
GUI\EmpresaGrupoGUI.class
GUI\EmpresaGUI$8.class
Pedidos\PedidosVerificar$21.class
Pedidos\ModificarPedido$1.class
produccion\OrdenProduccion$3.class
Facturador\facturaBotones$5.class
produccion\OrdenProduccion$28.class
COMPRASBorrego\ComprasBorre$31.class
Produccion2\OrdenProduccion$38.class
KARDEXRESUMIDO\KardexMio$6.class
GUI\ArticuloGUI$5.class
COMPRASBorrego\ComprasBorre$19.class
Inventario\TestInventarioEmpresasArticulo.class
EnviarSunat\ModificarEnviosGui$5.class
Pedidos\Pedidos3$4.class
Produccion2\OrdenProduccion$8.class
Facturador\panelPedido$4.class
GUI\EmpresaSedeGUI$5.class
IngresoAlmacen\CompraeIngresoAlmacen$15.class
produccion\OrdenProduccion$5.class
Pedidos\Pedidos3$1.class
Produccion2\OrdenProduccion$6.class
Produccion2\OrdenProduccion$23.class
Facturador\enviarGui$9.class
GUI\Principal$13.class
Produccion2\MODPRODUCCION.class
EnviarSunat\ModificarEnviosGui$2.class
GUI\ListaGUI$5.class
COMPRASBorrego\ComprasBorre$17.class
COMPRASBorrego\ComprasBorre$7.class
Facturador\factura.class
Pedidos\Pedidos2$22.class
KARDEXRESUMIDO\versionBorrego$2.class
GUI\Principal$35.class
produccion\OrdenProduccion$25.class
Bean\Script.class
ReporteDiario\ReporteDiario.class
GUI\MovimientoDetalleGUI.class
Movimiento\PanelArticulos$7.class
Facturador\interfazFacturador.class
Enviar2\EnviarArchivosPlanos$4.class
Facturador\facturadorGUI$37.class
GUI\UnidadMedidaGUI.class
Enviar2\Recibir$1.class
Facturador\facturaBotones$3.class
Maestros\Gestionable.class
Modificar\MODIFICARCOMPROBANTE$10.class
Enviar2\Recibir$2.class
EnviarSunat\enviar$1.class
Inventario\inventarioInicialGui$4.class
Enviar2\EnviarArchivosPlanos$2.class
Produccion2\MODPRODUCCION$10.class
Movimiento\MovimientoBorrego$4.class
Facturador\PrintUtility.class
Movimiento\PanelArticulos$8.class
Produccion2\OrdenProduccion$4.class
Pedidos\Pedidos3$3.class
ReporteCostots\versionBorrego.class
ReporteCostots\versionBorrego$13.class
Facturador\CambiarItem$3.class
Enviar2\RecibirLista$1.class
Pedidos\PedidosVerificar$20.class
Bean\ExcelFileUpdateExample1.class
COMPRASBorrego\ComprasBorre$30.class
Facturador\facturadorGUI$39.class
produccion\OrdenProduccion$27.class
comprasVentas\ReportesProducctosProveedor$5.class
Inventario\TestInventarioEmpresasArticulo$1.class
Facturador\facturaBotones$1.class
Maestros\MovimientoDetalleM.class
Maestros\UnidadMedidaM.class
Facturador\facturaBotones.class
Facturador\MiObjeto.class
Bean\quitarEspacio.class
Pedidos\ModificarPedido$5.class
Produccion2\OrdenProduccion$21.class
GUI\Principal$34.class
KARDEXRESUMIDO\versionBorrego$1.class
GUI\Principal$14.class
GUI\ListaGUI$2.class
Enviar2\RecibirLista$2.class
comprasVentas\ReportesProducctosProveedor$6.class
Conexion\edwardCabro.class
Bean\Categoria.class
Produccion2\MODPRODUCCION$11.class
GUI\Principal$33.class
produccion\ModificarProduccion$2.class
Produccion2\OrdenProduccion$20.class
Produccion2\eventoTabla.class
GUI\EmpresaSedeGUI$1.class
arqueo\ReportesArqueoCaja$2.class
Kardex\pasarDatos.class
produccion\OrdenProduccion$1.class
GUI\ListaGUI$3.class
ReporteEntradasPorMes\ReporteEntradasPorMes$1.class
produccion\ModificarProduccion$1.class
Maestros\ListaM.class
Movimiento\MovimientoBorrego$9.class
IngresoAlmacen\CompraeIngresoAlmacen$19.class
Inventario\inventarioInicialGui$3.class
Movimiento\MovimientoBorrego$3.class
produccion\OrdenProduccion$2.class
GUI\ArticuloGUI$1.class
arqueo\ReportesArqueoCaja$1.class
Enviar2\EnviarArchivosPlanos$1.class
ReporteCostots\versionBorrego$14.class
EnviarSunat\enviar$2.class
Produccion2\OrdenProduccion$3.class
comprasVentas\ReportesProducctosProveedor$1.class
produccion\ModificarProduccion.class
Conexion\Mysql.class
Movimiento\MovimientoBorrego$8.class
Produccion2\ModificarProduccion$3.class
ReporteEntradasPorMes\ReporteEntradasPorMes.class
Inventario\inventarioInicialGui$8.class
ReporteEntradasPorMes\ReporteEntradasPorMes$7.class
COMPRASBorrego\ComprasBorre$34.class
Bean\UsuarioAcceso.class
comprasVentas\ReportesProducctosProveedor$4.class
GUI\Principal$18.class
ReporteEntradasPorMes\ReporteEntradasPorMes$4.class
GUI\Principal$30.class
nivelacion\Nivelacion$6.class
Pedidos\ModificarPedido$4.class
Bean\Lista.class
Facturador\panelPedido$1.class
Inventario\inventarioInicialGui$5.class
Movimiento\MovimientoBorrego$5.class
Pedidos\PedidosVerificar$27.class
Enviar2\RecibirLista$3.class
produccion\ModificarProduccion$3.class
arqueo\ReportesArqueoCaja$3.class
EnviarSunat\enviarGui.class
Produccion2\Produccion.class
Facturador\CambiarItem$4.class
Pedidos\PedidosVerificar$24.class
GUI\ListaGUI$1.class
Pedidos\Pedidos3$7.class
ReporteCostots\versionBorrego$12.class
Maestros\EmpresaM.class
Pedidos\Pedidos3$8.class
arqueo\ReportesArqueoCaja$5.class
Facturador\CambiarItem$1.class
COMPRASBorrego\ComprasBorre$36.class
Pedidos\ModificarPedido$6.class
Pedidos\PedidosVerificar$26.class
ReporteEntradasPorMes\ReporteEntradasPorMes$6.class
Facturador\MyCellRendererDisponibilidad.class
GUI\general$1.class
Pedidos\PedidosVerificar$25.class
Pedidos\Pedidos3$9.class
Pedidos\ModificarPedido$7.class
COMPRASBorrego\ComprasBorre$35.class
Produccion2\ModificarProduccion$4.class
arqueo\ReportesArqueoCaja$4.class
ReporteCostots\versionBorrego$11.class
GUI\Principal$19.class
ReporteEntradasPorMes\ReporteEntradasPorMes$5.class
Bean\Archivo.class
Facturador\CambiarItem$2.class
comprasVentas\Compras.class
comprasVentas\ReportesProducctosProveedor$3.class
Movimiento\MovimientoBorrego$6.class
Inventario\inventarioInicialGui$6.class
comprasVentas\ReportesForm$5.class
comprasVentas\ReportesProducctosProveedor$8.class
IngresoAlmacen\CompraeIngresoAlmacen$7.class
Maestros\EmpresaGrupoM.class
GUI\Configuracion$1.class
EnviarSunat\enviarGui$1.class
ReporteCostots\KardexMio$6.class
GUI\UnidadMedidaGUI$6.class
Enviar2\EnviarListas$1.class
GUI\ArticuloGUI$10.class
Facturador\panelPedido$3.class
GUI\SerieDocumento.class
Facturador\facturadorGUI$36.class
Facturador\facturadorGUI$10.class
Inventario\inventarioInicialGui$7.class
Facturador\MyCellRenderer.class
Facturador\facturadorGUI$23.class
comprasVentas\ReportesProducctosProveedor.class
GUI\EmpresaSedeGUI$9.class
Pedidos\ModificarPedido$2.class
comprasVentas\ReporteVentas$4.class
Facturador\facturaBotones$4.class
reportePedidos\ReportePedidos$8.class
COMPRASBorrego\ComprasBorre$8.class
Facturador\enviarGui$1.class
Movimiento\MovimientoBorrego$7.class
produccion\OrdenProduccion$4.class
Produccion2\MODPRODUCCION$5.class
GUI\Principal$17.class
Movimiento\PanelArticulos.class
GUI\UsuarioGUI$9.class
Facturador\facturadorGUI$7.class
EnviarSunat\enviarGui$6.class
GUI\general$2.class
Maestros\MovimientoDocumentoM.class
EnviarSunat\ModificarEnviosGui.class
IngresoAlmacen\CompraeIngresoAlmacen$2.class
GUI\ArticuloGUI$9.class
IngresoAlmacen\CompraeIngresoAlmacen$11.class
Facturador\enviar.class
Enviar2\RecibirLista.class
Produccion2\OrdenProduccion$43.class
ReporteCostots\KardexMio$1.class
Facturador\facturaBotones$13.class
Facturador\PopupMenuFrame.class
Pedidos\PedidosVerificar$6.class
IngresoAlmacen\GuardarCompra.class
Kardex\Kardex$15.class
Inventario\inventarioInicialGui$2.class
IngresoAlmacen\CompraeIngresoAlmacenLiqCom$10.class
Produccion2\OrdenProduccion$2.class
Movimiento\MovimientoBorrego$2.class
produccion\OrdenProduccion$9.class
Produccion2\OrdenProduccion$30.class
Facturador\facturadorGUI$28.class
GUI\CategoriaGUI$5.class
GUI\UsuarioGUI.class
Facturador\Numero_a_Letra.class
Movimiento\PanelArticulos$4.class
COMPRASBorrego\ComprasBorre$32.class
Facturador\enviarGui$6.class
EnviarSunat\ModificarEnviosGui$16.class
IngresoAlmacen\CompraeIngresoAlmacenLiqCom$15.class
GUI\Login$2.class
Pedidos\Pedidos3$22.class
Pedidos\PedidosVerificar$22.class
GUI\UsuarioGUI$4.class
Modificar\MODIFICARCOMPROBANTE$13.class
Facturador\facturadorGUI$2.class
COMPRASBorrego\ComprasBorre$3.class
Pedidos\Pedidos3.class
GUI\SerieDocumento$5.class
produccion\OrdenProduccion$18.class
Facturador\enviar$1.class
Kardex\Kardex$10.class
KARDEXRESUMIDO\versionBorrego$3.class
Maestros\MenuMaestro$4.class
ReporteCostots\versionBorrego$8.class
GUI\Principal$3.class
Produccion2\OrdenProduccion$18.class
ReporteCostots\Mapeable.class
Pedidos\Pedidos2$24.class
COMPRASBorrego\ComprasBorre$24.class
Produccion2\OrdenProduccion$48.class
Produccion2\ListaProduccion$4.class
GUI\MovimientoTipoGUI$1.class
GUI\Principal$20.class
GUI\EmpresaGrupoGUI$5.class
Enviar2\Recibir$3.class
Facturador\interfazFacturador$1.class
nivelacion\PanelArticulos$7.class
KARDEXRESUMIDO\Pruebas.class
KARDEXRESUMIDO\versionBorrego$19.class
GUI\MovimientoDocumentoGUI$8.class
GUI\ArticuloPrecioGUI$11.class
produccion\OrdenProduccion$26.class
Facturador\facturadorGUI$15.class
produccion\MODPRODUCCION$3.class
GUI\FormulaDetalleGUI$6.class
GUI\UnidadMedidaGUI$1.class
Bean\ArticuloPrecio.class
Bean\convertir.class
nivelacion\Nivelacion$1.class
Pedidos\Pedidos3$19.class
GUI\MovimientoDetalleGUI$5.class
IngresoAlmacen\Compra_IngAlmacen.class
ReporteDiario\ReporteDiario$13.class
produccion\ListaProduccion$1.class
Facturador\ComprobarDisponibilidad$8.class
Facturador\imprimir.class
Produccion2\OrdenProduccion$7.class
GUI\MovimientoDetalleGUI$6.class
IngresoAlmacen\CompraeIngresoAlmacen$16.class
Pedidos\Pedidos3$2.class
GUI\EmpresaSedeGUI$4.class
ReporteDiario\ReporteDiario$6.class
Maestros\UsuarioAccesoM.class
GUI\Principal$12.class
Produccion2\OrdenProduccion$22.class
GUI\FormulaDetalleGUI$7.class
Enviar2\ArchivosGenerdor.class
GUI\ArticuloPrecioGUI$5.class
GUI\FormulaCabeceraGUI$6.class
GUI\ArticuloGUI$4.class
Produccion2\MyTableCellEditor.class
EnviarSunat\ModificarEnviosGui$3.class
Pedidos\Pedidos2$16.class
ReporteCostots\versionBorrego$17.class
GUI\ListaGUI$6.class
Pedidos\PedidosVerificar$14.class
produccion\MODPRODUCCION$2.class
nivelacion\Nivelacion$2.class
EnviarSunat\ModificarEnviosGui$4.class
Facturador\ComprobarDisponibilidad$3.class
Pedidos\Pedidos2$28.class
IngresoAlmacen\CompraeIngresoAlmacenLiqCom$9.class
GUI\EmpresaGUI$1.class
IngresoAlmacen\CompraeIngresoAlmacenLiqCom$19.class
Movimiento\MovimientoBorrego$14.class
produccion\MODPRODUCCION$8.class
produccion\OrdenProduccion$14.class
GUI\FormulaDetalleGUI$1.class
Pedidos\Pedidos3$13.class
Facturador\facturadorGUI$40.class
GUI\ArticuloPrecioGUI$1.class
GUI\MovimientoDocumentoGUI$9.class
Inventario\Inventario$1.class
produccion\OrdenProduccion$21.class
ReporteSalidasPorMes\ReporteSalidasPorMes$6.class
Kardex\Kardex$8.class
GUI\EmpresaSedeGUI.class
GUI\general.class
KARDEXRESUMIDO\versionBorrego$18.class
Bean\Documento.class
Produccion2\ListaProduccion$5.class
ReporteCostots\versionBorrego$18.class
GUI\MovimientoTipoGUI$5.class
IngresoAlmacen\CompraeIngresoAlmacen.class
Facturador\facturadorGUI$19.class
Movimiento\Movimiento$1.class
ReporteCostots\versionBorrego$7.class
KARDEXRESUMIDO\versionBorrego$7.class
Pedidos\Pedidos3$18.class
Modificar\MODIFICARCOMPROBANTE$2.class
Pedidos\Pedidos2.class
KARDEXRESUMIDO\DatosArt.class
Produccion2\OrdenProduccion$27.class
Kardex\Kardex$2.class
reportePedidos\ReporteEnvios.class
COMPRASBorrego\ComprasBorre$10.class
Pedidos\PedidosVerificar$2.class
GUI\SerieDocumento$4.class
Movimiento\Movimiento$7.class
Pedidos\Pedidos2$23.class
Produccion2\OrdenProduccion$39.class
Produccion2\OrdenProduccion$19.class
KARDEXRESUMIDO\KardexMio$5.class
IngresoAlmacen\CompraeIngresoAlmacenLiqCom$4.class
ReporteDiario\ReporteDiario$2.class
GUI\EmpresaGUI$6.class
IngresoAlmacen\CompraeIngresoAlmacenLiqCom$14.class
Modificar\MODIFICARCOMPROBANTE$8.class
Movimiento\PanelArticulos$3.class
KARDEXRESUMIDO\KardexMio$4.class
Facturador\enviarGui$5.class
COMPRASBorrego\ComprasBorre$16.class
ReporteSalidasPorMes\ReporteSalidasPorMes$1.class
Movimiento\MovimientoBorrego$13.class
GUI\Login$3.class
nivelacion\PanelArticulos$8.class
COMPRASBorrego\ComprasBorre$4.class
Kardex\Kardex$3.class
Modificar\MODIFICARCOMPROBANTE$14.class
Pedidos\Pedidos3$21.class
Modificar\MODIFICARCOMPROBANTE$7.class
GUI\EmpresaGUI$7.class
Produccion2\OrdenProduccion$26.class
Movimiento\Movimiento$11.class
nivelacion\PanelArticulos.class
Produccion2\OrdenProduccion$42.class
produccion\OrdenProduccion$8.class
COMPRASBorrego\ComprasBorre$15.class
Movimiento\Movimiento$2.class
GUI\CategoriaGUI$4.class
GUI\Mostrable.class
GUI\Principal$4.class
Pedidos\PedidosVerificar$7.class
produccion\OrdenProduccion$22.class
Facturador\ComprobarDisponibilidad$4.class
Produccion2\MODPRODUCCION$9.class
IngresoAlmacen\CompraeIngresoAlmacen$10.class
ReporteEntradasPorMes\Inventario$1.class
Produccion2\OrdenProduccion$35.class
Produccion2\TextFieldPirata.class
Modificar\MODIFICARCOMPROBANTE$3.class
Pedidos\PedidosVerificar$1.class
Facturador\facturadorGUI$3.class
COMPRASBorrego\ComprasBorre$11.class
Facturador\facturadorGUI$6.class
arqueo\pasarDatos.class
GUI\ArticuloGUI.class
Facturador\panelPedido.class
GUI\FormulaCabeceraGUI$2.class
Facturador\facturadorGUI$24.class
ReporteDiario\ReporteDiario$1.class
ReporteCostots\KardexMio$5.class
Facturador\facturadorGUI$32.class
ReporteCostots\KardexMio$2.class
Bean\MovimientoDetalle.class
ReporteSalidasPorMes\Inventario.class
Pedidos\PedidoObj.class
ReporteCostots\versionBorrego$3.class
GUI\Principal$9.class
Facturador\facturadorGUI$27.class
EnviarSunat\ModificarEnviosGui$8.class
IngresoAlmacen\Autocomplete.class
Pedidos\PedidosVerificar.class
GUI\FormulaDetalleGUI$2.class
GUI\EmpresaGUI$2.class
produccion\MODPRODUCCION$7.class
IngresoAlmacen\CompraeIngresoAlmacenLiqCom$5.class
Facturador\facturaBotones$8.class
GUI\CategoriaGUI$1.class
KARDEXRESUMIDO\versionBorrego$8.class
Maestros\MenuMaestro.class
GUI\UsuarioGUI$12.class
EnviarSunat\ModificarEnviosGui$9.class
reportePedidos\ReportePedidos$4.class
GUI\ArticuloGUI$11.class
ReporteSalidasPorMes\ReporteSalidasPorMes$5.class
Facturador\facturadorGUI$31.class
GUI\FormulaCabeceraGUI$11.class
test\TestInstancias.class
GUI\FormulaCabeceraGUI$1.class
produccion\eventoTabla.class
GUI\MovimientoDocumentoGUI$4.class
produccion\OrdenProduccion$13.class
Facturador\ComprobarDisponibilidad$13.class
GUI\MovimientoTipoGUI$6.class
KARDEXRESUMIDO\versionBorrego$13.class
GUI\Principal$8.class
Produccion2\OrdenProduccion$34.class
Maestros\EmpresaSedeM.class
Modificar\MODIFICARCOMPROBANTE$17.class
Movimiento\Movimiento$6.class
GUI\UsuarioGUI$11.class
GUI\Principal$7.class
Bean\ArticuloPanel.class
Movimiento\Movimiento.class
Facturador\facturaBotones$9.class
GUI\FormulaCabeceraGUI$10.class
Pedidos\Pedidos3$14.class
reportePedidos\ReportePedidos$3.class
GUI\SerieDocumento$9.class
Bean\MovimientoDocumento.class
ReporteCostots\versionBorrego$2.class
GUI\MovimientoDocumentoGUI$3.class
Kardex\Kardex$7.class
KARDEXRESUMIDO\versionBorrego$14.class
Facturador\enviarGui$2.class
Bean\MovimientoCab.class
Facturador\ComprobarDisponibilidad$12.class
Produccion2\OrdenProduccion.class
GUI\CategoriaGUI$6.class
ReporteCostots\versionBorrego$4.class
IngresoAlmacen\CompraeIngresoAlmacenLiqCom$16.class
produccion\GuardarProduccion.class
GUI\EmpresaGrupoGUI$9.class
Facturador\facturadorGUI$30.class
nivelacion\PanelArticulos$6.class
EnviarSunat\ModificarEnviosGui$15.class
IngresoAlmacen\CompraeIngresoAlmacenLiqCom$6.class
reportePedidos\ReportePedidos$12.class
Bean\convertir$2.class
Pedidos\Pedidos2$2.class
Kardex\Kardex$14.class
Pedidos\Pedidos2$12.class
Pedidos\PedidosVerificar$15.class
Maestros\MenuMaestro$3.class
GUI\SerieDocumento$1.class
Facturador\facturadorGUI$16.class
GUI\ArticuloPrecioGUI$4.class
reportePedidos\ReportePedidos.class
GUI\Principal$29.class
IngresoAlmacen\CompraeIngresoAlmacenLiqCom$11.class
COMPRASBorrego\ComprasBorre$25.class
GUI\MovimientoTipoGUI$2.class
comprasVentas\pasarDatos.class
GUI\Login$1.class
GUI\Login.class
Produccion2\ListaProduccion.class
produccion\OrdenProduccion.class
Produccion2\OrdenProduccion$44.class
Movimiento\Movimiento$10.class
Bean\Formula.class
comprasVentas\ReporteVentas$5.class
GUI\EmpresaGUI$13.class
reportePedidos\ReportePedidos$7.class
Facturador\ComprobarDisponibilidad$5.class
Enviar2\EnviarListas$2.class
GUI\MovimientoDetalleGUI$2.class
GUI\UsuarioGUI$3.class
nivelacion\PanelArticulos$1.class
comprasVentas\ReportesForm$4.class
produccion\ListaProduccion.class
EnviarSunat\enviarGui$7.class
Facturador\facturadorGUI$1.class
GUI\EmpresaGrupoGUI$4.class
GUI\FormulaDetalleGUI$3.class
Pedidos\Pedidos4.class
produccion\MODPRODUCCION$6.class
EnviarSunat\ModificarEnviosGui$10.class
GUI\MovimientoDocumentoGUI$7.class
Pedidos\PedidosVerificar$10.class
EnviarSunat\enviarGui$2.class
GUI\ArticuloPrecioGUI$9.class
GUI\SerieDocumento$6.class
KARDEXRESUMIDO\versionBorrego$10.class
Pedidos\Pedidos2$7.class
Facturador\facturadorGUI$29.class
produccion\OrdenProduccion$17.class
Facturador\facturaBotones$12.class
Pedidos\Pedidos2$19.class
Produccion2\OrdenProduccion$31.class
Facturador\facturadorGUI$11.class
produccion\MODPRODUCCION.class
produccion\ListaProduccion$5.class
Produccion2\MODPRODUCCION$6.class
COMPRASBorrego\ComprasBorre$20.class
Kardex\Kardex$4.class
Produccion2\OrdenProduccion$49.class
Pedidos\ModificarPedido$16.class
Produccion2\OrdenProduccion$15.class
reportePedidos\ReportePedidos$9.class
IngresoAlmacen\CompraeIngresoAlmacen$20.class
Pedidos\Pedidos3$17.class
GUI\MovimientoDetalleGUI$7.class
Produccion2\ListaProduccion$1.class
ReporteDiario\ReporteDiario$7.class
IngresoAlmacen\CompraeIngresoAlmacen$3.class
Pedidos\Pedidos2$14.class
produccion\MODPRODUCCION$1.class
GUI\UsuarioGUI$8.class
comprasVentas\ReportesForm$1.class
Maestros\UsuarioM.class
GUI\FormulaDetalleGUI$8.class
GUI\FormulaCabeceraGUI$7.class
ReporteDiario\RepDia.class
Modificar\MODIFICARCOMPROBANTE$9.class
Bean\Usuario$2.class
Pedidos\Pedidos2$9.class
produccion\MODPRODUCCION$4.class
Bean\MiModel.class
GUI\UsuarioGUI$5.class
KARDEXRESUMIDO\versionBorrego.class
GUI\FormulaDetalleGUI$5.class
Produccion2\MODPRODUCCION$1.class
KARDEXRESUMIDO\EmpresaSedeMapeable.class
GUI\FormulaCabeceraGUI$5.class
GUI\UnidadMedidaGUI$2.class
Pedidos\SendMesage.class
ReporteEntradasPorMes\TestInventarioEmpresasArticulo.class
Pedidos\MyCellRenderPedidos.class
GUI\MovimientoDetalleGUI$4.class
GUI\EmpresaGUI$10.class
nivelacion\PanelArticulos$4.class
Produccion2\MODPRODUCCION$4.class
GUI\CategoriaGUI$8.class
Produccion2\OrdenProduccion$17.class
Facturador\facturadorGUI$41.class
Bean\Observacion.class
Kardex\Kardex$11.class
Pedidos\PedidosVerificar$13.class
GUI\ArticuloPrecioGUI$6.class
ReporteDiario\ReporteDiario$5.class
produccion\OrdenProduccion$19.class
GUI\SerieDocumento$3.class
ReporteCostots\versionBorrego$9.class
IngresoAlmacen\CompraeIngresoAlmacen$1.class
Bean\Usuario.class
Pedidos\Pedidos2$17.class
comprasVentas\ReporteVentas$8.class
Facturador\facturaBotones$10.class
IngresoAlmacen\CompraeIngresoAlmacenLiqCom$1.class
Facturador\facturadorGUI$14.class
Conexion\Priegba.class
Enviar2\EnviarListas$progreso.class
Kardex\Kardex$1.class
GUI\EmpresaGrupoGUI$7.class
IngresoAlmacen\Autocomplete$CommitAction.class
Facturador\enviar$2.class
Produccion2\OrdenProduccion$46.class
EnviarSunat\enviarGui$5.class
Facturador\ComprobarDisponibilidad$7.class
COMPRASBorrego\ComprasBorre$23.class
Kardex\Kardex$12.class
Produccion2\ListaProduccion$3.class
produccion\ListaProduccion$2.class
ReporteDiario\ReporteDiario$14.class
COMPRASBorrego\ComprasBorre$28.class
GUI\EmpresaGrupoGUI$6.class
GUI\Principal$21.class
ReporteSalidasPorMes\TestInventarioEmpresasArticulo$1.class
Bean\Usuario$1.class
EnviarSunat\ModificarEnviosGui$12.class
ReporteCostots\DatosArt.class
GUI\EmpresaGUI$11.class
Pedidos\Pedidos2$5.class
Facturador\CambiarItem.class
Pedidos\Pedidos2$15.class
arqueo\ReportesArqueoCaja.class
EnviarSunat\enviarGui$4.class
GUI\UnidadMedidaGUI$3.class
Pedidos\ModificarPedido.class
ReporteCostots\versionBorrego$20.class
reportePedidos\ReportePedidos$15.class
Produccion2\MODPRODUCCION$2.class
Facturador\facturadorGUI$13.class
nivelacion\PanelArticulos$3.class
Pedidos\PedidosVerificar$18.class
ReporteDiario\ReporteDiario$8.class
Facturador\ComprobarDisponibilidad$9.class
reportePedidos\ReporteEnvios$2.class
Maestros\ArticuloM.class
Enviar2\EnviarArchivosPlanos.class
ReporteDiario\ReporteDiario$12.class
comprasVentas\ReporteVentas$1.class
comprasVentas\ReportesForm$2.class
Produccion2\OrdenProduccion$47.class
Modificar\MODIFICARCOMPROBANTE.class
comprasVentas\ReporteVentas$7.class
Pedidos\ModificarPedido$15.class
GUI\ArticuloPrecioGUI$7.class
GUI\CategoriaGUI$9.class
EnviarSunat\ModificarEnviosGui$17.class
GUI\FormulaCabeceraGUI$8.class
GUI\Principal$26.class
IngresoAlmacen\CompraeIngresoAlmacen$5.class
Maestros\Maestro.class
comprasVentas\ReportesForm$3.class
GUI\FormulaCabeceraGUI.class
Pedidos\Pedidos2$6.class
reportePedidos\ReportePedidos$14.class
IngresoAlmacen\CompraeIngresoAlmacen$9.class
GUI\EmpresaGUI.class
Pedidos\ModificarPedido$14.class
Produccion2\OrdenProduccion$13.class
ReporteCostots\pasarDatos.class
GUI\CategoriaGUI.class
IngresoAlmacen\CompraeIngresoAlmacenLiqCom.class
COMPRASBorrego\ComprasBorre$27.class
Maestros\MenuMaestro$1.class
Pedidos\PedidosVerificar$17.class
comprasVentas\ReporteVentas$6.class
Enviar2\EnviarListas$3.class
GUI\Principal$27.class
GUI\FormulaCabeceraGUI$9.class
ReporteDiario\ReporteDiario$11.class
GUI\EmpresaGUI$12.class
IngresoAlmacen\CompraeIngresoAlmacen$4.class
reportePedidos\ReporteEnvios$1.class
produccion\MODPRODUCCION$11.class
nivelacion\PanelArticulos$2.class
Produccion2\OrdenProduccion$14.class
GUI\UnidadMedidaGUI$4.class
ReporteDiario\ReporteDiario$9.class
COMPRASBorrego\IngresoLocale.class
Pedidos\Pedidos2$11.class
IngresoAlmacen\Autocomplete$CompletionTask.class
KARDEXRESUMIDO\Mapeable.class
Pedidos\Pedidos2$1.class
Pedidos\ModificarPedido$13.class
Kardex\Kardex$16.class
comprasVentas\ReporteVentas$3.class
produccion\MODPRODUCCION$10.class
Bean\FormulaDetalleInsumo.class
EnviarSunat\ModificarEnviosGui$11.class
GUI\UnidadMedidaGUI$5.class
IngresoAlmacen\CompraeIngresoAlmacen$6.class
GUI\Principal$25.class
GUI\MovimientoDetalleGUI$1.class
Bean\Articulo.class
GUI\EmpresaGrupoGUI$2.class
GUI\Principal$22.class
IngresoAlmacen\CompraeIngresoAlmacen$8.class
Produccion2\OrdenProduccion$12.class
EnviarSunat\ModificarEnviosGui$14.class
nivelacion\Nivelacion.class
Pedidos\PedidosVerificar$19.class
reportePedidos\ReportePedidos$11.class
reportePedidos\ReporteEnvios$3.class
Bean\convertir$1.class
GUI\EmpresaGrupoGUI$1.class
Bean\empresasedeserie.class
comprasVentas\ReportesForm$7.class
reportePedidos\ReportePedidos$10.class
GUI\Principal$23.class
GUI\UnidadMedidaGUI$8.class
EnviarSunat\ModificarEnviosGui$13.class
arqueo\Arqueo.class
GUI\Principal.class
Pedidos\Pedidos2$3.class
Produccion2\OrdenProduccion$10.class
Maestros\LoginSQL$1.class
Pedidos\ModificarPedido$11.class
Pedidos\ModificarPedido$10.class
reportePedidos\ReporteEnvios$4.class
comprasVentas\ReportesForm$6.class
COMPRASBorrego\ComprasBorre$29.class
Maestros\LoginSQL.class
Pedidos\Pedidos2$10.class
Maestros\MiModel.class
Bean\Impuestos.class
comprasVentas\ReporteVentas$2.class
Produccion2\OrdenProduccion$11.class
Facturador\PopupMenuFrame_this_mouseAdapter.class
GUI\UnidadMedidaGUI$7.class
GUI\Principal$24.class
Pedidos\Pedidos2$4.class
Produccion2\GuardarProduccion.class
